%YAML 1.1
%TAG !u! tag:unity3d.com,2011:
--- !u!21 &2100000
Material:
  serializedVersion: 6
  m_ObjectHideFlags: 0
  m_PrefabParentObject: {fileID: 0}
  m_PrefabInternal: {fileID: 0}
  m_Name: entaku_tex_AlbedoTransparency
  m_Shader: {fileID: 46, guid: 0000000000000000f000000000000000, type: 0}
  m_ShaderKeywords: USE_REFLECTION_PROBE USE_VERTEX_LIGHT _EMISSION _LIGHTSAMPLING_ARKTOON
    _MATCAPBLENDMODE_ADD _NORMALMAP _SHADOWCAPBLENDMODE_DARKEN
  m_LightmapFlags: 1
  m_EnableInstancingVariants: 0
  m_DoubleSidedGI: 0
  m_CustomRenderQueue: -1
  stringTagMap: {}
  disabledShaderPasses: []
  m_SavedProperties:
    serializedVersion: 3
    m_TexEnvs:
    - _BumpMap:
        m_Texture: {fileID: 2800000, guid: d8f6512580acb74468a8eda0eec4b506, type: 3}
        m_Scale: {x: 1, y: 1}
        m_Offset: {x: 0, y: 0}
    - _DetailAlbedoMap:
        m_Texture: {fileID: 0}
        m_Scale: {x: 1, y: 0.1}
        m_Offset: {x: 0, y: 0.89}
    - _DetailMask:
        m_Texture: {fileID: 0}
        m_Scale: {x: 1, y: 1}
        m_Offset: {x: 0, y: 0}
    - _DetailNormalMap:
        m_Texture: {fileID: 0}
        m_Scale: {x: 1, y: 1}
        m_Offset: {x: 0, y: 0}
    - _EmissionMap:
        m_Texture: {fileID: 0}
        m_Scale: {x: 1, y: 1}
        m_Offset: {x: 0, y: 0}
    - _GlossBlendMask:
        m_Texture: {fileID: 0}
        m_Scale: {x: 1, y: 1}
        m_Offset: {x: 0, y: 0}
    - _MainTex:
        m_Texture: {fileID: 2800000, guid: d2ee7e76cb0cf6446bd9d8a943310689, type: 3}
        m_Scale: {x: 1, y: 1}
        m_Offset: {x: 0, y: 0}
    - _MatcapBlendMask:
        m_Texture: {fileID: 0}
        m_Scale: {x: 1, y: 1}
        m_Offset: {x: 0, y: 0}
    - _MatcapTexture:
        m_Texture: {fileID: 0}
        m_Scale: {x: 1, y: 1}
        m_Offset: {x: 0, y: 0}
    - _MetallicGlossMap:
        m_Texture: {fileID: 0}
        m_Scale: {x: 1, y: 1}
        m_Offset: {x: 0, y: 0}
    - _OcclusionMap:
        m_Texture: {fileID: 0}
        m_Scale: {x: 1, y: 1}
        m_Offset: {x: 0, y: 0}
    - _OutlineWidthMask:
        m_Texture: {fileID: 0}
        m_Scale: {x: 1, y: 1}
        m_Offset: {x: 0, y: 0}
    - _ParallaxMap:
        m_Texture: {fileID: 0}
        m_Scale: {x: 1, y: 1}
        m_Offset: {x: 0, y: 0}
    - _ReflectionCubemap:
        m_Texture: {fileID: 0}
        m_Scale: {x: 1, y: 1}
        m_Offset: {x: 0, y: 0}
    - _ReflectionReflectionMask:
        m_Texture: {fileID: 0}
        m_Scale: {x: 1, y: 1}
        m_Offset: {x: 0, y: 0}
    - _RimBlendMask:
        m_Texture: {fileID: 0}
        m_Scale: {x: 1, y: 1}
        m_Offset: {x: 0, y: 0}
    - _RimTexture:
        m_Texture: {fileID: 0}
        m_Scale: {x: 1, y: 1}
        m_Offset: {x: 0, y: 0}
    - _ShadowCapBlendMask:
        m_Texture: {fileID: 0}
        m_Scale: {x: 1, y: 1}
        m_Offset: {x: 0, y: 0}
    - _ShadowCapTexture:
        m_Texture: {fileID: 0}
        m_Scale: {x: 1, y: 1}
        m_Offset: {x: 0, y: 0}
    - _ShadowPlanB2CustomShadowTexture:
        m_Texture: {fileID: 0}
        m_Scale: {x: 1, y: 1}
        m_Offset: {x: 0, y: 0}
    - _ShadowPlanBCustomShadowTexture:
        m_Texture: {fileID: 0}
        m_Scale: {x: 1, y: 1}
        m_Offset: {x: 0, y: 0}
    - _ShadowStrengthMask:
        m_Texture: {fileID: 0}
        m_Scale: {x: 1, y: 1}
        m_Offset: {x: 0, y: 0}
    m_Floats:
    - _BumpScale: 1
    - _CustomShadow2nd: 0
    - _Cutoff: 0.5
    - _DetailNormalMapScale: 1
    - _DstBlend: 0
    - _GlossBlend: 0.5
    - _GlossMapScale: 1
    - _GlossPower: 0.5
    - _Glossiness: 1
    - _GlossyReflections: 1
    - _LightSampling: 0
    - _MatcapBlend: 1
    - _MatcapBlendMode: 0
    - _MatcapNormalMix: 1
    - _MatcapShadeMix: 0
    - _Metallic: 0
    - _Mode: 0
    - _OcclusionStrength: 1
    - _OtherShadowAdjust: -0.1
    - _OtherShadowBorderSharpness: 3
    - _OutlineShadeMix: 0
    - _OutlineTextureColorRate: 0.05
    - _OutlineWidth: 0.05
    - _Parallax: 0.02
    - _PointAddIntensity: 1
    - _PointShadowSteps: 2
    - _PointShadowStrength: 0.5
    - _PointShadowUseStep: 0
    - _PointShadowborder: 0.5
    - _PointShadowborderBlur: 0.01
    - _ReflectionNormalMix: 1
    - _ReflectionReflectionPower: 1
    - _ReflectionShadeMix: 0
    - _ReflectionSuppressBaseColorValue: 1
    - _RimBlend: 1
    - _RimFresnelPower: 1
    - _RimShadeMix: 0
    - _RimUpperSideWidth: 0
    - _RimUseBaseTexture: 0
    - _ShadowCapBlend: 1
    - _ShadowCapBlendMode: 0
    - _ShadowCapNormalMix: 1
    - _ShadowIndirectIntensity: 0.25
    - _ShadowPlanB2HueShiftFromBase: 0
    - _ShadowPlanB2SaturationFromBase: 1
    - _ShadowPlanB2UseCustomShadowTexture: 0
    - _ShadowPlanB2ValueFromBase: 1
    - _ShadowPlanB2border: 0.55
    - _ShadowPlanB2borderBlur: 0.55
    - _ShadowPlanBDefaultShadowMix: 1
    - _ShadowPlanBHueShiftFromBase: 0
    - _ShadowPlanBSaturationFromBase: 1
    - _ShadowPlanBUseCustomShadowTexture: 0
    - _ShadowPlanBUsePlanB: 0
    - _ShadowPlanBValueFromBase: 1
    - _ShadowSteps: 4
    - _ShadowStrength: 0.179
    - _ShadowUseStep: 0
    - _Shadowborder: 0
    - _ShadowborderBlur: 0.295
    - _SmoothnessTextureChannel: 0
    - _SpecularHighlights: 1
    - _SrcBlend: 1
    - _UVSec: 0
    - _UseDoubleSided: 0
    - _UseGloss: 0
    - _UseMatcap: 0
    - _UseOutline: 0
    - _UseOutlineWidthMask: 0
    - _UseReflection: 0
    - _UseReflectionProbe: 1
    - _UseRim: 0
    - _UseShadowCap: 0
    - _UseVertexLight: 1
    - _VertexColorBlendDiffuse: 0
    - _VertexColorBlendEmissive: 0
    - _ZWrite: 1
    m_Colors:
    - _Color: {r: 0.8196079, g: 0.8235295, b: 0.8941177, a: 1}
    - _EmissionColor: {r: 0.76043284, g: 0.7520545, b: 0.78676474, a: 0}
    - _GlossColor: {r: 1, g: 1, b: 1, a: 1}
    - _MatcapColor: {r: 1, g: 1, b: 1, a: 1}
    - _OutlineColor: {r: 0, g: 0, b: 0, a: 1}
    - _RimColor: {r: 1, g: 1, b: 1, a: 1}
    - _ShadowPlanB2CustomShadowTextureRGB: {r: 1, g: 1, b: 1, a: 1}
    - _ShadowPlanBCustomShadowTextureRGB: {r: 1, g: 1, b: 1, a: 1}
